<?xml version="1.0" encoding="UTF-8" standalone="no"?>
<!-- Created with Inkscape (http://www.inkscape.org/) -->

<svg
   xmlns:dc="http://purl.org/dc/elements/1.1/"
   xmlns:cc="http://creativecommons.org/ns#"
   xmlns:rdf="http://www.w3.org/1999/02/22-rdf-syntax-ns#"
   xmlns:svg="http://www.w3.org/2000/svg"
   xmlns="http://www.w3.org/2000/svg"
   xmlns:sodipodi="http://sodipodi.sourceforge.net/DTD/sodipodi-0.dtd"
   xmlns:inkscape="http://www.inkscape.org/namespaces/inkscape"
   width="500"
   height="500"
   viewBox="0 0 132.29166 132.29167"
   version="1.1"
   id="svg8"
   inkscape:version="0.92.1 r15371"
   sodipodi:docname="logo.svg"
   inkscape:export-filename="/home/user/Documents/Project/DataStructure/Tree/Python/Img/logo.png"
   inkscape:export-xdpi="96"
   inkscape:export-ydpi="96">
  <defs
     id="defs2" />
  <sodipodi:namedview
     id="base"
     pagecolor="#6f6f6f"
     bordercolor="#ffffff"
     borderopacity="1"
     inkscape:pageopacity="0"
     inkscape:pageshadow="2"
     inkscape:zoom="0.49497475"
     inkscape:cx="320.75614"
     inkscape:cy="9.3234079"
     inkscape:document-units="px"
     inkscape:current-layer="layer1"
     showgrid="false"
     units="px"
     inkscape:showpageshadow="false"
     inkscape:window-width="956"
     inkscape:window-height="1549"
     inkscape:window-x="1922"
     inkscape:window-y="24"
     inkscape:window-maximized="0" />
  <metadata
     id="metadata5">
    <rdf:RDF>
      <cc:Work
         rdf:about="">
        <dc:format>image/svg+xml</dc:format>
        <dc:type
           rdf:resource="http://purl.org/dc/dcmitype/StillImage" />
        <dc:title></dc:title>
        <cc:license
           rdf:resource="http://creativecommons.org/licenses/by/4.0/" />
      </cc:Work>
      <cc:License
         rdf:about="http://creativecommons.org/licenses/by/4.0/">
        <cc:permits
           rdf:resource="http://creativecommons.org/ns#Reproduction" />
        <cc:permits
           rdf:resource="http://creativecommons.org/ns#Distribution" />
        <cc:requires
           rdf:resource="http://creativecommons.org/ns#Notice" />
        <cc:requires
           rdf:resource="http://creativecommons.org/ns#Attribution" />
        <cc:permits
           rdf:resource="http://creativecommons.org/ns#DerivativeWorks" />
      </cc:License>
    </rdf:RDF>
  </metadata>
  <g
     inkscape:label="Layer 1"
     inkscape:groupmode="layer"
     id="layer1"
     transform="translate(0,-164.70832)">
    <rect
       style="opacity:1;fill:#f9f9f9;fill-opacity:1;stroke:none;stroke-width:3.29709029;stroke-miterlimit:4;stroke-dasharray:none;stroke-opacity:1"
       id="rect4485"
       width="132.29167"
       height="132.29167"
       x="0"
       y="164.70831"
       ry="0" />
    <path
       style="fill:#483737;fill-opacity:1;stroke:none;stroke-width:0.21747188px;stroke-linecap:butt;stroke-linejoin:miter;stroke-opacity:1"
       d="m 67.439648,223.45767 c -5.349291,0.12274 -14.555003,22.09365 -14.555003,22.09365 -7.077097,42.76919 -1.769025,51.4977 -1.769025,51.4977 l 21.231284,0.21813 -1.326875,-65.02662 c -0.442318,-6.4372 -1.797285,-8.82378 -3.580381,-8.78286 z"
       id="path4493"
       inkscape:connector-curvature="0" />
    <path
       style="fill:#241c1c;fill-opacity:1;stroke:none;stroke-width:0.21617664px;stroke-linecap:butt;stroke-linejoin:miter;stroke-opacity:1"
       d="m 67.505085,223.45791 c 8.469126,15.24268 -16.106351,73.70014 -16.106351,73.70014 l 28.09443,0.0546 c 0,0 -11.483657,-24.46973 -4.540252,-73.91805 z"
       id="path4539"
       inkscape:connector-curvature="0" />
    <path
       style="fill:#ac9393;fill-opacity:1;stroke:none;stroke-width:0.21625711px;stroke-linecap:butt;stroke-linejoin:miter;stroke-opacity:1"
       d="m 67.439649,223.45767 c 0,0 -13.625551,2.31085 -15.014231,0.14588 0,0 2.623064,60.31001 -5.554724,73.60913 h 14.658301 c 0,0 -9.934695,-45.44694 5.910654,-73.75501 z"
       id="path4555"
       inkscape:connector-curvature="0" />
    <path
       style="fill:#0c8600;fill-opacity:1;stroke:none;stroke-width:0.24392304px;stroke-linecap:butt;stroke-linejoin:miter;stroke-opacity:1"
       d="m 75.083837,164.27732 c -6.297634,-0.0714 -14.138233,4.62563 -19.785876,8.73597 -25.865842,-15.1064 -32.964288,-0.35529 -34.911486,9.20095 -16.7070028,3.04553 -14.9450935,12.07129 -9.318623,20.10174 -3.6678515,5.86113 1.033089,13.3971 7.709303,20.16271 -10.4979695,28.15911 8.343589,23.31549 19.38569,18.59151 6.434192,7.00007 17.677042,9.48127 36.912416,-8.60496 15.306415,6.1473 34.432049,8.73314 39.356409,-13.37622 0.38896,-1.74634 0.6171,-3.32673 0.7008,-4.75602 5.71908,-4.03579 10.35314,-10.53212 7.48825,-20.68201 -1.39826,-4.95384 -3.30069,-6.2326 -5.40203,-5.26388 0.0583,-0.0463 0.1165,-0.0906 0.17484,-0.1372 21.68588,-17.32745 -6.68153,-15.75031 -32.101608,-11.8903 -1.12541,-8.91191 -5.169091,-12.02515 -10.208085,-12.08229 z"
       id="path4565"
       inkscape:connector-curvature="0" />
    <path
       inkscape:connector-curvature="0"
       style="fill:#389d2e;fill-opacity:1;stroke:none;stroke-width:0.20617731px;stroke-linecap:butt;stroke-linejoin:miter;stroke-opacity:1"
       d="m 73.133529,170.25353 c -5.323115,-0.0603 -11.950423,3.90985 -16.724124,7.38413 -21.863247,-12.76876 -27.863248,-0.30031 -29.509128,7.77716 -14.121688,2.57424 -12.632424,10.20332 -7.876618,16.9911 -3.100272,4.95416 0.873224,11.32397 6.516331,17.04265 -8.873467,23.80164 7.052465,19.70754 16.385862,15.71458 5.438537,5.91684 14.941618,8.01409 31.200422,-7.2734 12.937835,5.19605 29.103896,7.38173 33.266246,-11.30633 0.32876,-1.4761 0.52159,-2.81193 0.59235,-4.02004 4.83408,-3.41128 8.75104,-8.90234 6.32948,-17.48159 -1.18188,-4.18725 -2.78994,-5.26813 -4.5661,-4.44932 0.0492,-0.0392 0.0985,-0.0767 0.14778,-0.11597 18.33011,-14.64613 -5.64759,-13.31304 -27.134068,-10.05034 -0.951257,-7.53285 -4.3692,-10.16434 -8.628433,-10.21263 z"
       id="path4565-7" />
    <path
       inkscape:connector-curvature="0"
       style="fill:#074700;fill-opacity:1;stroke:none;stroke-width:0.15386154px;stroke-linecap:butt;stroke-linejoin:miter;stroke-opacity:1"
       d="m 69.998937,179.32833 c -3.97242,-0.045 -8.918103,2.91776 -12.480518,5.51047 -16.31563,-9.5288 -20.793182,-0.2241 -22.021435,5.80377 -10.538426,1.92105 -9.427051,7.61431 -5.877991,12.67974 -2.313604,3.69709 0.651651,8.45063 4.862867,12.71822 -6.621899,17.76218 5.262961,14.70693 12.228087,11.72714 4.058553,4.41551 11.150307,5.98059 23.283576,-5.42783 9.654966,3.87759 21.719024,5.50869 24.825208,-8.43744 0.24534,-1.10155 0.38925,-2.09843 0.44205,-2.99999 3.60747,-2.54569 6.530539,-6.64345 4.72343,-13.04579 -0.882,-3.12476 -2.08202,-3.93138 -3.4075,-3.32034 0.0368,-0.0292 0.0735,-0.0573 0.11029,-0.0865 13.678999,-10.92979 -4.214564,-9.93497 -20.249025,-7.50015 -0.709883,-5.62145 -3.26055,-7.58522 -6.439039,-7.62126 z"
       id="path4565-7-5" />
    <path
       inkscape:connector-curvature="0"
       style="fill:#042400;fill-opacity:1;stroke:none;stroke-width:0.10895243px;stroke-linecap:butt;stroke-linejoin:miter;stroke-opacity:1"
       d="m 67.053033,187.20615 c -2.812952,-0.0319 -6.315088,2.06612 -8.837704,3.90207 -11.553424,-6.74753 -14.724068,-0.15868 -15.593818,4.10977 -7.462469,1.36033 -6.675483,5.39184 -4.162322,8.97878 -1.638309,2.61799 0.461446,5.98405 3.443493,9.00602 -4.6891,12.57776 3.726808,10.41426 8.658952,8.30423 2.873942,3.12671 7.895754,4.23497 16.487563,-3.84356 6.836875,2.7458 15.379673,3.90081 17.579228,-5.97472 0.173729,-0.78003 0.275633,-1.48594 0.313023,-2.12436 2.554525,-1.80265 4.624402,-4.70435 3.344756,-9.23797 -0.624554,-2.21272 -1.474321,-2.7839 -2.412918,-2.3512 0.02602,-0.0207 0.05204,-0.0405 0.0781,-0.0613 9.686367,-7.7396 -2.984414,-7.03514 -14.338737,-5.311 -0.502682,-3.98066 -2.308862,-5.37125 -4.559612,-5.39677 z"
       id="path4565-7-5-3" />
    <rect
       style="opacity:0.8;fill:#042400;fill-opacity:1;stroke:none;stroke-width:2.16499996;stroke-miterlimit:4;stroke-dasharray:none;stroke-opacity:1"
       id="rect4684"
       width="132.29167"
       height="30.729237"
       x="0"
       y="266.83643" />
    <flowRoot
       xml:space="preserve"
       id="flowRoot4686"
       style="font-style:normal;font-weight:normal;font-size:40px;line-height:1.25;font-family:sans-serif;text-align:center;letter-spacing:0px;word-spacing:0px;text-anchor:middle;fill:#000000;fill-opacity:1;stroke:none"
       transform="matrix(0.26458333,0,0,0.26458333,0,266.83813)"><flowRegion
         id="flowRegion4688"
         style="text-align:center;text-anchor:middle"><rect
           id="rect4690"
           width="504.04065"
           height="175.73462"
           x="0"
           y="-2.6500984e-05"
           style="text-align:center;text-anchor:middle" /></flowRegion><flowPara
         id="flowPara4692"
         style="font-style:normal;font-variant:normal;font-weight:normal;font-stretch:normal;font-size:96px;font-family:GentiumAlt;-inkscape-font-specification:GentiumAlt;fill:#ffffff;fill-opacity:1"><flowSpan
   style="-inkscape-font-specification:'Century Schoolbook L Bold';font-family:'Century Schoolbook L';font-weight:bold;font-style:normal;font-stretch:normal;font-variant:normal;fill:#ff0000;font-size:96px"
   id="flowSpan4496">P</flowSpan>YCYPRESS</flowPara></flowRoot>    <path
       style="fill:none;stroke:none;stroke-width:0.26458332px;stroke-linecap:butt;stroke-linejoin:miter;stroke-opacity:1"
       d="m 45.735118,213.08927 c 0,0 -22.167514,-24.75184 17.00893,-22.86756 0,0 34.206844,3.77976 16.063987,14.17411 -18.142857,10.39434 -22.300595,10.58333 -22.300595,10.58333 0,0 -10.394346,2.26786 -10.772322,-1.88988 z"
       id="path4702"
       inkscape:connector-curvature="0" />
  </g>
</svg>
